﻿date,value
2014-01-01,29122032789
2014-02-01,29246709971
2014-03-01,31312566012
2014-04-01,25658369497
2014-05-01,32516779918
2014-06-01,31309081946
2014-07-01,32909135959
2014-08-01,34046569355
2014-09-01,36044093386
2014-10-01,35442419421
2014-11-01,33909258015
2014-12-01,35444866637
2015-01-01,31765525330
2015-02-01,29970398595
2015-03-01,31959655235
2015-04-01,29114585803
2015-05-01,32657993544
2015-06-01,33564710309
2015-07-01,34023502789
2015-08-01,37926175602
2015-09-01,42928843379
2015-10-01,43069592038
2015-11-01,38699474579
2015-12-01,36631944343
2016-01-01,34176558429
2016-02-01,32488404577
2016-03-01,35848786030
2016-04-01,30134605320
2016-05-01,36156340737
2016-06-01,39281886551
2016-07-01,37088295167
2016-08-01,41353910073
2016-09-01,44940251697
2016-10-01,38599847008
2016-11-01,39664222924
2016-12-01,40689831526
2017-01-01,34481588857
2017-02-01,35398649574
2017-03-01,42000483191
2017-04-01,30008371681
2017-05-01,37538344690
2017-06-01,45050256361
2017-07-01,38167538097
2017-08-01,44558340336
2017-09-01,43509766381
2017-10-01,40406127289
2017-11-01,44216713055
2017-12-01,40613264754
2018-01-01,38227833976
2018-02-01,36473646693
2018-03-01,41656923069
2018-04-01,34450947275
2018-05-01,39988788044
2018-06-01,45232832246
2018-07-01,42439144369
2018-08-01,47991260065
2018-09-01,46145781965
2018-10-01,43792069301
2018-11-01,43511985418
2018-12-01,38985541226
