﻿date,value
2014-01-01,15497415780
2014-02-01,15551466064
2014-03-01,14227100295
2014-04-01,10711698771
2014-05-01,9351784816
2014-06-01,8958887989
2014-07-01,8778780546
2014-08-01,8775691501
2014-09-01,9590670219
2014-10-01,9714474680
2014-11-01,8773180413
2014-12-01,10619561998
2015-01-01,9081447279
2015-02-01,9027165257
2015-03-01,10094432594
2015-04-01,7657248192
2015-05-01,7749821935
2015-06-01,8933862916
2015-07-01,10992752351
2015-08-01,12780322566
2015-09-01,9958559539
2015-10-01,10235064266
2015-11-01,9386711226
2015-12-01,9252933396
2016-01-01,8257220793
2016-02-01,8453135993
2016-03-01,9236618759
2016-04-01,9864860166
2016-05-01,8266082666
2016-06-01,8593518904
2016-07-01,8848478585
2016-08-01,9653016824
2016-09-01,8800990981
2016-10-01,9099257399
2016-11-01,10445685043
2016-12-01,11996835467
2017-01-01,13055530842
2017-02-01,13869158845
2017-03-01,16746542715
2017-04-01,12797283143
2017-05-01,11489022552
2017-06-01,9736658330
2017-07-01,8575508726
2017-08-01,10290696121
2017-09-01,9795290081
2017-10-01,10731980058
2017-11-01,10965576582
2017-12-01,10393352793
2018-01-01,8379574368
2018-02-01,9293513017
2018-03-01,7812107911
2018-04-01,11048589866
2018-05-01,9439849985
2018-06-01,8716076831
2018-07-01,8908656892
2018-08-01,9007333072
2018-09-01,8156373022
2018-10-01,9182819068
2018-11-01,8430177111
2018-12-01,7433699472
